1,4,4,4,1050,0,2,400,2,400,360,360,1,32211.245564624118
1,4,4,4,1050,1,2,400,1,400,360,360,2,33728.90037909798
1,4,4,4,1050,1,3,400,1,400,360,360,1,33383.31997917242
1,4,4,4,1050,1,2,400,2,400,360,360,2,30928.14876922205
-1,4,4,4,1050,1,2,400,2,400,360,360,3,16632.773105532055
-1,4,4,4,1050,0,2,400,2,400,360,360,5,33376.92854585731
-1,4,4,4,1050,0,3,400,0,400,360,360,4,31412.364173763228
-1,4,4,4,1050,0,2,400,0,400,360,360,1,33467.700416544205
1,4,4,4,1050,1,2,400,1,400,360,360,3,33706.21911334642
-1,4,4,4,1050,0,2,400,1,400,360,360,2,33756.42354552434
-1,4,4,4,1050,0,2,400,1,400,360,360,1,33718.47029812433
-1,4,4,4,1050,1,2,400,0,400,360,360,5,33628.46369812603
1,4,4,4,1050,1,2,400,1,400,360,360,5,33826.12897595018
-1,4,4,4,1050,0,3,400,1,400,360,360,1,24678.32648863292
1,4,4,4,1050,0,3,400,2,400,360,360,3,19797.282040305134
-1,4,4,4,1050,0,2,400,1,400,360,360,5,33761.89572117753
-1,4,4,4,1050,1,2,400,0,400,360,360,4,33571.03967797854
1,4,4,4,1050,0,3,400,2,400,360,360,5,23445.824170794993
1,4,4,4,1050,1,3,400,1,400,360,360,3,33177.545352174704
-1,4,4,4,1050,0,2,400,1,400,360,360,3,33745.076573952734
-1,4,4,4,1050,0,2,400,2,400,360,360,4,33040.672450477025
1,4,4,4,1050,0,3,400,1,400,360,360,1,33648.1116615745
1,4,4,4,1050,0,3,400,2,400,360,360,2,19139.590918053687
1,4,4,4,1050,0,2,400,2,400,360,360,3,32913.820045644854
1,4,4,4,1050,1,2,400,2,400,360,360,3,29172.54737209578
1,4,4,4,1050,1,2,400,2,400,360,360,1,24282.076374936663
-1,4,4,4,1050,0,3,400,0,400,360,360,5,32588.09362396114
1,4,4,4,1050,0,2,400,2,400,360,360,4,32211.172213235754
-1,4,4,4,1050,0,3,400,0,400,360,360,1,33563.46444083756
-1,4,4,4,1050,1,2,400,1,400,360,360,5,33610.04604229266
1,4,4,4,1050,0,2,400,1,400,360,360,3,33691.37611954243
1,4,4,4,1050,0,3,400,2,400,360,360,1,19834.34087917427
1,4,4,4,1050,0,2,400,1,400,360,360,1,33688.59118586903
-1,4,4,4,1050,0,3,400,1,400,360,360,2,31460.62339487646
-1,4,4,4,1050,1,2,400,1,400,360,360,4,33711.72307181843
-1,4,4,4,1050,1,2,400,1,400,360,360,2,33673.118969242496
1,4,4,4,1050,1,3,400,1,400,360,360,4,33682.86951891308
-1,4,4,4,1050,1,2,400,0,400,360,360,2,33639.90389397627
-1,4,4,4,1050,0,2,400,2,400,360,360,3,33095.28238886836
1,4,4,4,1050,1,3,400,1,400,360,360,5,33568.25979712965
-1,4,4,4,1050,1,2,400,0,400,360,360,3,33582.23831444715
1,4,4,4,1050,0,3,400,2,400,360,360,4,30089.684985113752
-1,4,4,4,1050,0,2,400,1,400,360,360,4,33720.99329626575
1,4,4,4,1050,0,3,400,1,400,360,360,5,33634.620823869685
1,4,4,4,1050,1,2,400,1,400,360,360,4,33767.75662480033
1,4,4,4,1050,1,3,400,1,400,360,360,2,33675.12726067561
1,4,4,4,1050,0,3,400,1,400,360,360,3,33670.67655235246
1,4,4,4,1050,0,2,400,1,400,360,360,5,33693.67930727605
1,4,4,4,1050,0,2,400,2,400,360,360,2,32211.833384492784
1,4,4,4,1050,0,3,400,1,400,360,360,4,33697.449050213516
-1,4,4,4,1050,0,3,400,0,400,360,360,2,33623.37554705779
-1,4,4,4,1050,0,2,400,0,400,360,360,5,33539.59761784728
-1,4,4,4,1050,0,2,400,2,400,360,360,1,33151.528362493715
-1,4,4,4,1050,1,2,400,1,400,360,360,1,33675.35637389477
-1,4,4,4,1050,0,3,400,0,400,360,360,3,33574.66847972946
-1,4,4,4,1050,0,2,400,2,400,360,360,2,33124.77024330548
1,4,4,4,1050,0,3,400,1,400,360,360,2,33636.35952824634
-1,4,4,4,1050,1,2,400,0,400,360,360,1,33607.31939287016
-1,4,4,4,1050,0,2,400,0,400,360,360,2,33487.603015977744
1,4,4,4,1050,0,2,400,1,400,360,360,4,33692.20987229
1,4,4,4,1050,1,2,400,2,400,360,360,4,24910.301206873723
-1,4,4,4,1050,0,2,400,0,400,360,360,3,33513.14720498561
-1,4,4,4,1050,0,2,400,0,400,360,360,4,33579.714222053146
1,4,4,4,1050,1,3,400,2,400,360,360,4,16309.902544853929
1,4,4,4,1050,1,2,400,2,400,360,360,5,32004.784678078227
1,4,4,4,1050,0,2,400,1,400,360,360,2,33464.840208587644
1,4,4,4,1050,0,2,400,2,400,360,360,5,32213.603910327107
1,4,4,4,1050,1,2,400,1,400,360,360,1,33728.60817151863
-1,4,4,4,1050,1,2,400,1,400,360,360,3,33699.80152897037
